…
Each time we ran `summarize()`, we got back fewer rows than passed in. We either got one row back, or one row per group. But sometimes we want to create a new column in our data without changing the number of rows. The function we use to create new columns is called `mutate()`.

We have a column for the population and the GDP per capita. If we wanted to get the total GDP, we could multiply the per capita GDP values by the total population. Here's what such a `mutate()` command would look like:


~~~
gapminder_data %>%
  mutate(gdp = pop * gdpPercap)
~~~
{: .language-r}



~~~
# A tibble: 1,704 x 7
   country      year      pop continent lifeExp gdpPercap          gdp
   <chr>       <dbl>    <dbl> <chr>       <dbl>     <dbl>        <dbl>
 1 Afghanistan  1952  8425333 Asia         28.8      779.  6567086330.
 2 Afghanistan  1957  9240934 Asia         30.3      821.  7585448670.
 3 Afghanistan  1962 10267083 Asia         32.0      853.  8758855797.
 4 Afghanistan  1967 11537966 Asia         34.0      836.  9648014150.
 5 Afghanistan  1972 13079460 Asia         36.1      740.  9678553274.
 6 Afghanistan  1977 14880372 Asia         38.4      786. 11697659231.
 7 Afghanistan  1982 12881816 Asia         39.9      978. 12598563401.
 8 Afghanistan  1987 13867957 Asia         40.8      852. 11820990309.
 9 Afghanistan  1992 16317921 Asia         41.7      649. 10595901589.
10 Afghanistan  1997 22227415 Asia         41.8      635. 14121995875.
# … with 1,694 more rows
…
We use the `filter()` function to choose a subset of the rows from our data, but when we want to choose a subset of columns from our data we use `select()`. For example, if we only wanted to see the population ("pop") and year values, we can do:


~~~
gapminder_data %>%
  select(pop, year)
~~~
{: .language-r}



~~~
# A tibble: 1,704 x 2
        pop  year
      <dbl> <dbl>
 1  8425333  1952
 2  9240934  1957
 3 10267083  1962
 4 11537966  1967
 5 13079460  1972
 6 14880372  1977
 7 12881816  1982
 8 13867957  1987
 9 16317921  1992
10 22227415  1997
# … with 1,694 more rows
…
The `select()` function has a bunch of helper functions that are handy if you are working with a dataset that has a lot of columns. You can see these helper functions on the `?select` help page. For example, let's say we wanted to select the year column and all the columns that start with the letter "c". You can do that with:


~~~
gapminder_data %>%
  select(year, starts_with("c"))
~~~
{: .language-r}



~~~
# A tibble: 1,704 x 3
    year country     continent
   <dbl> <chr>       <chr>    
 1  1952 Afghanistan Asia     
 2  1957 Afghanistan Asia     
 3  1962 Afghanistan Asia     
 4  1967 Afghanistan Asia     
 5  1972 Afghanistan Asia     
 6  1977 Afghanistan Asia     
 7  1982 Afghanistan Asia     
 8  1987 Afghanistan Asia     
 9  1992 Afghanistan Asia     
10  1997 Afghanistan Asia     
# … with 1,694 more rows
…
This returns just the three columns we are interested in. We can also use `select()` to drop/remove particular columns by putting a minus sign (`-`) in front of the column name. For example, if we want everything but the continent column, we can do:


~~~
gapminder_data %>%
  select(-continent)
~~~
{: .language-r}



~~~
# A tibble: 1,704 x 5
   country      year      pop lifeExp gdpPercap
   <chr>       <dbl>    <dbl>   <dbl>     <dbl>
 1 Afghanistan  1952  8425333    28.8      779.
 2 Afghanistan  1957  9240934    30.3      821.
 3 Afghanistan  1962 10267083    32.0      853.
 4 Afghanistan  1967 11537966    34.0      836.
 5 Afghanistan  1972 13079460    36.1      740.
 6 Afghanistan  1977 14880372    38.4      786.
 7 Afghanistan  1982 12881816    39.9      978.
 8 Afghanistan  1987 13867957    40.8      852.
 9 Afghanistan  1992 16317921    41.7      649.
10 Afghanistan  1997 22227415    41.8      635.
# … with 1,694 more rows
…
> > ## Solution
> >
> > The helper function `ends_with()` can help us here.
> >
> > 
> > ~~~
> > gapminder_data %>%
> > select(ends_with("p"))
> > ~~~
> > {: .language-r}
> > 
> > 
> > 
> > ~~~
> > # A tibble: 1,704 x 3
> >         pop lifeExp gdpPercap
> >       <dbl>   <dbl>     <dbl>
> >  1  8425333    28.8      779.
> >  2  9240934    30.3      821.
> >  3 10267083    32.0      853.
> >  4 11537966    34.0      836.
> >  5 13079460    36.1      740.
> >  6 14880372    38.4      786.
> >  7 12881816    39.9      978.
> >  8 13867957    40.8      852.
> >  9 16317921    41.7      649.
> > 10 22227415    41.8      635.
> > # … with 1,694 more rows
…
The `tidyr` package contains the functions `pivot_wider` and `pivot_longer` that make it easy to switch between the two formats. The `tidyr` package is included in the `tidyverse` package so we don't need to do anything to load it.


~~~
gapminder_data %>%
  select(country, continent, year, lifeExp) %>%
  pivot_wider(names_from = year, values_from = lifeExp )
~~~
{: .language-r}



~~~
# A tibble: 142 x 14
   country continent `1952` `1957` `1962` `1967` `1972` `1977` `1982` `1987`
   <chr>   <chr>      <dbl>  <dbl>  <dbl>  <dbl>  <dbl>  <dbl>  <dbl>  <dbl>
 1 Afghan… Asia        28.8   30.3   32.0   34.0   36.1   38.4   39.9   40.8
 2 Albania Europe      55.2   59.3   64.8   66.2   67.7   68.9   70.4   72  
 3 Algeria Africa      43.1   45.7   48.3   51.4   54.5   58.0   61.4   65.8
 4 Angola  Africa      30.0   32.0   34     36.0   37.9   39.5   39.9   39.9
 5 Argent… Americas    62.5   64.4   65.1   65.6   67.1   68.5   69.9   70.8
 6 Austra… Oceania     69.1   70.3   70.9   71.1   71.9   73.5   74.7   76.3
 7 Austria Europe      66.8   67.5   69.5   70.1   70.6   72.2   73.2   74.9
 8 Bahrain Asia        50.9   53.8   56.9   59.9   63.3   65.6   69.1   70.8
 9 Bangla… Asia        37.5   39.3   41.2   43.5   45.3   46.9   50.0   52.8
10 Belgium Europe      68     69.2   70.2   70.9   71.4   72.8   73.9   75.4
# … with 132 more rows, and 4 more variables: `1992` <dbl>, `1997` <dbl>,
#   `2002` <dbl>, `2007` <dbl>
…
~~~
# A tibble: 2,133 x 7
   T24      `CO2 emission est… X3    X4            X5    X6    X7               
   <chr>    <chr>              <chr> <chr>         <chr> <chr> <chr>            
 1 Region/… <NA>               Year  Series        Value Foot… Source           
 2 8        Albania            1975  Emissions (t… 4338… <NA>  International En…
 3 8        Albania            1985  Emissions (t… 6929… <NA>  International En…
 4 8        Albania            1995  Emissions (t… 1848… <NA>  International En…
 5 8        Albania            2005  Emissions (t… 3825… <NA>  International En…
 6 8        Albania            2010  Emissions (t… 3930… <NA>  International En…
 7 8        Albania            2015  Emissions (t… 3824… <NA>  International En…
 8 8        Albania            2016  Emissions (t… 3674… <NA>  International En…
 9 8        Albania            2017  Emissions (t… 4342… <NA>  International En…
10 8        Albania            1975  Emissions pe… 1.80… <NA>  International En…
# … with 2,123 more rows
…
~~~
# A tibble: 2,132 x 7
   `Region/Country/… X2      Year Series        Value Footnotes Source          
               <dbl> <chr>  <dbl> <chr>         <dbl> <chr>     <chr>           
 1                 8 Alban…  1975 Emissions (… 4.34e3 <NA>      International E…
 2                 8 Alban…  1985 Emissions (… 6.93e3 <NA>      International E…
 3                 8 Alban…  1995 Emissions (… 1.85e3 <NA>      International E…
 4                 8 Alban…  2005 Emissions (… 3.83e3 <NA>      International E…
 5                 8 Alban…  2010 Emissions (… 3.93e3 <NA>      International E…
 6                 8 Alban…  2015 Emissions (… 3.82e3 <NA>      International E…
 7                 8 Alban…  2016 Emissions (… 3.67e3 <NA>      International E…
 8                 8 Alban…  2017 Emissions (… 4.34e3 <NA>      International E…
 9                 8 Alban…  1975 Emissions p… 1.80e0 <NA>      International E…
10                 8 Alban…  1985 Emissions p… 2.34e0 <NA>      International E…
# … with 2,122 more rows
…
~~~
# A tibble: 2,132 x 7
   region country  year series             value footnotes source               
    <dbl> <chr>   <dbl> <chr>              <dbl> <chr>     <chr>                
 1      8 Albania  1975 Emissions (thous… 4.34e3 <NA>      International Energy…
 2      8 Albania  1985 Emissions (thous… 6.93e3 <NA>      International Energy…
 3      8 Albania  1995 Emissions (thous… 1.85e3 <NA>      International Energy…
 4      8 Albania  2005 Emissions (thous… 3.83e3 <NA>      International Energy…
 5      8 Albania  2010 Emissions (thous… 3.93e3 <NA>      International Energy…
 6      8 Albania  2015 Emissions (thous… 3.82e3 <NA>      International Energy…
 7      8 Albania  2016 Emissions (thous… 3.67e3 <NA>      International Energy…
 8      8 Albania  2017 Emissions (thous… 4.34e3 <NA>      International Energy…
 9      8 Albania  1975 Emissions per ca… 1.80e0 <NA>      International Energy…
10      8 Albania  1985 Emissions per ca… 2.34e0 <NA>      International Energy…
# … with 2,122 more rows
…
~~~
# A tibble: 2,132 x 7
   `Region/Country/… country  Year Series        Value Footnotes Source         
               <dbl> <chr>   <dbl> <chr>         <dbl> <chr>     <chr>          
 1                 8 Albania  1975 Emissions (… 4.34e3 <NA>      International …
 2                 8 Albania  1985 Emissions (… 6.93e3 <NA>      International …
 3                 8 Albania  1995 Emissions (… 1.85e3 <NA>      International …
 4                 8 Albania  2005 Emissions (… 3.83e3 <NA>      International …
 5                 8 Albania  2010 Emissions (… 3.93e3 <NA>      International …
 6                 8 Albania  2015 Emissions (… 3.82e3 <NA>      International …
 7                 8 Albania  2016 Emissions (… 3.67e3 <NA>      International …
 8                 8 Albania  2017 Emissions (… 4.34e3 <NA>      International …
 9                 8 Albania  1975 Emissions p… 1.80e0 <NA>      International …
10                 8 Albania  1985 Emissions p… 2.34e0 <NA>      International …
# … with 2,122 more rows
…
~~~
# A tibble: 2,132 x 7
   `region/country/… x2      year series        value footnotes source          
               <dbl> <chr>  <dbl> <chr>         <dbl> <chr>     <chr>           
 1                 8 Alban…  1975 Emissions (… 4.34e3 <NA>      International E…
 2                 8 Alban…  1985 Emissions (… 6.93e3 <NA>      International E…
 3                 8 Alban…  1995 Emissions (… 1.85e3 <NA>      International E…
 4                 8 Alban…  2005 Emissions (… 3.83e3 <NA>      International E…
 5                 8 Alban…  2010 Emissions (… 3.93e3 <NA>      International E…
 6                 8 Alban…  2015 Emissions (… 3.82e3 <NA>      International E…
 7                 8 Alban…  2016 Emissions (… 3.67e3 <NA>      International E…
 8                 8 Alban…  2017 Emissions (… 4.34e3 <NA>      International E…
 9                 8 Alban…  1975 Emissions p… 1.80e0 <NA>      International E…
10                 8 Alban…  1985 Emissions p… 2.34e0 <NA>      International E…
# … with 2,122 more rows
…
~~~
# A tibble: 2,132 x 7
   region country  year series             value footnotes source               
    <dbl> <chr>   <dbl> <chr>              <dbl> <chr>     <chr>                
 1      8 Albania  1975 Emissions (thous… 4.34e3 <NA>      International Energy…
 2      8 Albania  1985 Emissions (thous… 6.93e3 <NA>      International Energy…
 3      8 Albania  1995 Emissions (thous… 1.85e3 <NA>      International Energy…
 4      8 Albania  2005 Emissions (thous… 3.83e3 <NA>      International Energy…
 5      8 Albania  2010 Emissions (thous… 3.93e3 <NA>      International Energy…
 6      8 Albania  2015 Emissions (thous… 3.82e3 <NA>      International Energy…
 7      8 Albania  2016 Emissions (thous… 3.67e3 <NA>      International Energy…
 8      8 Albania  2017 Emissions (thous… 4.34e3 <NA>      International Energy…
 9      8 Albania  1975 Emissions per ca… 1.80e0 <NA>      International Energy…
10      8 Albania  1985 Emissions per ca… 2.34e0 <NA>      International Energy…
# … with 2,122 more rows
…
~~~
# A tibble: 2,132 x 4
   country  year series                                                 value
   <chr>   <dbl> <chr>                                                  <dbl>
 1 Albania  1975 Emissions (thousand metric tons of carbon dioxide)   4338.  
 2 Albania  1985 Emissions (thousand metric tons of carbon dioxide)   6930.  
 3 Albania  1995 Emissions (thousand metric tons of carbon dioxide)   1849.  
 4 Albania  2005 Emissions (thousand metric tons of carbon dioxide)   3825.  
 5 Albania  2010 Emissions (thousand metric tons of carbon dioxide)   3930.  
 6 Albania  2015 Emissions (thousand metric tons of carbon dioxide)   3825.  
 7 Albania  2016 Emissions (thousand metric tons of carbon dioxide)   3674.  
 8 Albania  2017 Emissions (thousand metric tons of carbon dioxide)   4342.  
 9 Albania  1975 Emissions per capita (metric tons of carbon dioxide)    1.80
10 Albania  1985 Emissions per capita (metric tons of carbon dioxide)    2.34
# … with 2,122 more rows
…
~~~
# A tibble: 2,132 x 4
   country  year series       value
   <chr>   <dbl> <chr>        <dbl>
 1 Albania  1975 total      4338.  
 2 Albania  1985 total      6930.  
 3 Albania  1995 total      1849.  
 4 Albania  2005 total      3825.  
 5 Albania  2010 total      3930.  
 6 Albania  2015 total      3825.  
 7 Albania  2016 total      3674.  
 8 Albania  2017 total      4342.  
 9 Albania  1975 per_capita    1.80
10 Albania  1985 per_capita    2.34
# … with 2,122 more rows
…
~~~
# A tibble: 1,066 x 4
   country  year  total per_capita
   <chr>   <dbl>  <dbl>      <dbl>
 1 Albania  1975  4338.      1.80 
 2 Albania  1985  6930.      2.34 
 3 Albania  1995  1849.      0.580
 4 Albania  2005  3825.      1.27 
 5 Albania  2010  3930.      1.35 
 6 Albania  2015  3825.      1.33 
 7 Albania  2016  3674.      1.28 
 8 Albania  2017  4342.      1.51 
 9 Algeria  1975 13553.      0.811
10 Algeria  1985 42073.      1.86 
# … with 1,056 more rows
…
~~~
# A tibble: 140 x 3
   country      total per_capita
   <chr>        <dbl>      <dbl>
 1 Albania      3825.      1.27 
 2 Algeria     77474.      2.33 
 3 Angola       6147.      0.314
 4 Argentina  149476.      3.82 
 5 Armenia      4130.      1.38 
 6 Australia  365515.     17.9  
 7 Austria     74764.      9.09 
 8 Azerbaijan  29018.      3.46 
 9 Bahrain     20565.     23.1  
10 Bangladesh  31960.      0.223
# … with 130 more rows
…
~~~
Joining, by = "country"
~~~
{: .output}



~~~
# A tibble: 21 x 6
   country                  pop lifeExp gdpPercap   total per_capita
   <chr>                  <dbl>   <dbl>     <dbl>   <dbl>      <dbl>
 1 Argentina           40301927    75.3    12779. 149476.       3.82
 2 Brazil             190010647    72.4     9066. 311624.       1.67
 3 Canada              33390141    80.7    36319. 540431.      16.8 
 4 Chile               16284741    78.6    13172.  54435.       3.34
 5 Colombia            44227550    72.9     7007.  53585.       1.24
 6 Costa Rica           4133884    78.8     9645.   5463.       1.29
 7 Cuba                11416987    78.3     8948.  25051.       2.22
 8 Dominican Republic   9319622    72.2     6025.  17522.       1.90
 9 Ecuador             13755680    75.0     6873.  23927.       1.74
10 El Salvador          6939688    71.9     5728.   6253.       1.04
# … with 11 more rows
~~~
{: .output}

Do you see that we now have data from both data frames joined together in the same data frame? One thing to note about the output is that `inner_join()` tells us that that it joined by "country". We can make this explicit using the "by" argument in the join functions


~~~
inner_join(gapminder_data, co2_emissions, by="country")
~~~
{: .language-r}



~~~
# A tibble: 21 x 6
   country                  pop lifeExp gdpPercap   total per_capita
   <chr>                  <dbl>   <dbl>     <dbl>   <dbl>      <dbl>
 1 Argentina           40301927    75.3    12779. 149476.       3.82
 2 Brazil             190010647    72.4     9066. 311624.       1.67
 3 Canada              33390141    80.7    36319. 540431.      16.8 
 4 Chile               16284741    78.6    13172.  54435.       3.34
 5 Colombia            44227550    72.9     7007.  53585.       1.24
 6 Costa Rica           4133884    78.8     9645.   5463.       1.29
 7 Cuba                11416987    78.3     8948.  25051.       2.22
 8 Dominican Republic   9319622    72.2     6025.  17522.       1.90
 9 Ecuador             13755680    75.0     6873.  23927.       1.74
10 El Salvador          6939688    71.9     5728.   6253.       1.04
# … with 11 more rows
…
For the second question, we want to create two groups - Canada, the United States, and Mexico in one and the other countries in another.

We can create a grouping variable using `mutate()` combined with an `if_else()` function - a very useful pairing.


~~~
gapminder_co2 %>%
  mutate(region = if_else(country == "Canada" | country == "United States" | country == "Mexico", "north", "south"))
~~~
{: .language-r}



~~~
# A tibble: 24 x 7
   country            lifeExp gdpPercap       pop   total per_capita region
   <chr>                <dbl>     <dbl>     <dbl>   <dbl>      <dbl> <chr> 
 1 Argentina             75.3    12779.  40301927 149476.      3.82  south 
 2 Bolivia               65.6     3822.   9119152   8976.      0.984 south 
 3 Brazil                72.4     9066. 190010647 311624.      1.67  south 
 4 Canada                80.7    36319.  33390141 540431.     16.8   north 
 5 Chile                 78.6    13172.  16284741  54435.      3.34  south 
 6 Colombia              72.9     7007.  44227550  53585.      1.24  south 
 7 Costa Rica            78.8     9645.   4133884   5463.      1.29  south 
 8 Cuba                  78.3     8948.  11416987  25051.      2.22  south 
 9 Dominican Republic    72.2     6025.   9319622  17522.      1.90  south 
10 Ecuador               75.0     6873.  13755680  23927.      1.74  south 
# … with 14 more rows
…
> > Create a new variable using `mutate()` that calculates percentages for the pop and total variables.
> >
> > 
> > ~~~
> > gapminder_co2 %>%
> >   mutate(region = if_else(country == "Canada" | country == "United States" | country == "Mexico", "north", "south")) %>%
> >   mutate(totalPercent = total/sum(total)*100,
> >          popPercent = pop/sum(pop)*100)
> > ~~~
> > {: .language-r}
> > 
> > 
> > 
> > ~~~
> > # A tibble: 24 x 9
> >    country lifeExp gdpPercap    pop  total per_capita region totalPercent
> >    <chr>     <dbl>     <dbl>  <dbl>  <dbl>      <dbl> <chr>         <dbl>
> >  1 Argent…    75.3    12779. 4.03e7 1.49e5      3.82  south        1.98  
> >  2 Bolivia    65.6     3822. 9.12e6 8.98e3      0.984 south        0.119 
> >  3 Brazil     72.4     9066. 1.90e8 3.12e5      1.67  south        4.13  
> >  4 Canada     80.7    36319. 3.34e7 5.40e5     16.8   north        7.16  
> >  5 Chile      78.6    13172. 1.63e7 5.44e4      3.34  south        0.721 
> >  6 Colomb…    72.9     7007. 4.42e7 5.36e4      1.24  south        0.710 
> >  7 Costa …    78.8     9645. 4.13e6 5.46e3      1.29  south        0.0724
> >  8 Cuba       78.3     8948. 1.14e7 2.51e4      2.22  south        0.332 
> >  9 Domini…    72.2     6025. 9.32e6 1.75e4      1.90  south        0.232 
> > 10 Ecuador    75.0     6873. 1.38e7 2.39e4      1.74  south        0.317 
> > # … with 14 more rows, and 1 more variable: popPercent <dbl>
…
